BlueNRG1_it.c:80:6:NMI_Handler	0	static
BlueNRG1_it.c:86:6:HardFault_Handler	0	static
BlueNRG1_it.c:95:6:SVC_Handler	0	static
BlueNRG1_it.c:101:6:SysTick_Handler	8	static
BlueNRG1_it.c:111:6:GPIO_Handler	8	static
BlueNRG1_it.c:163:6:DMA_Handler	8	static
BlueNRG1_it.c:189:6:UART_Handler	8	static
BlueNRG1_it.c:219:6:Blue_Handler	8	static
