gatt_db.c:170:12:Add_HW_SW_ServW2ST_Service	64	static
gatt_db.c:251:12:Add_ConfigW2ST_Service	64	static
gatt_db.c:280:12:Add_ConsoleW2ST_Service	64	static
gatt_db.c:593:12:Term_Update	40	static
gatt_db.c:614:10:getTimestamp	8	static
gatt_db.c:323:12:AccEvent_Notify	32	static
gatt_db.c:354:12:Quaternion_Update	24	static
gatt_db.c:380:12:GasGauge_Update	24	static
gatt_db.c:414:12:ECompass_Update	24	static
gatt_db.c:430:12:FlightSense_Update	24	static
gatt_db.c:449:12:Led_Update	24	static
gatt_db.c:499:12:AccGyroMag_Update	32	static
gatt_db.c:543:12:Environmental_Update	32	static
gatt_db.c:572:12:Config_Notify	32	static
gatt_db.c:629:6:Read_Request_CB	24	static
gatt_db.c:662:6:Attribute_Modified_CB	24	static
