LIS2MDL.c:62:9:lis2mdl_read_reg	8	static
LIS2MDL.c:79:9:lis2mdl_write_reg	8	static
LIS2MDL.c:107:9:lis2mdl_mag_user_offset_set	8	static
LIS2MDL.c:125:9:lis2mdl_mag_user_offset_get	8	static
LIS2MDL.c:136:9:lis2mdl_operating_mode_set	24	static
LIS2MDL.c:154:9:lis2mdl_operating_mode_get	24	static
LIS2MDL.c:171:9:lis2mdl_data_rate_set	24	static
LIS2MDL.c:189:9:lis2mdl_data_rate_get	24	static
LIS2MDL.c:206:9:lis2mdl_power_mode_set	24	static
LIS2MDL.c:224:9:lis2mdl_power_mode_get	24	static
LIS2MDL.c:242:9:lis2mdl_offset_temp_comp_set	24	static
LIS2MDL.c:261:9:lis2mdl_offset_temp_comp_get	24	static
LIS2MDL.c:278:9:lis2mdl_low_pass_bandwidth_set	24	static
LIS2MDL.c:296:9:lis2mdl_low_pass_bandwidth_get	24	static
LIS2MDL.c:314:9:lis2mdl_set_rst_mode_set	24	static
LIS2MDL.c:332:9:lis2mdl_set_rst_mode_get	24	static
LIS2MDL.c:357:9:lis2mdl_set_rst_sensor_single_set	24	static
LIS2MDL.c:382:9:lis2mdl_set_rst_sensor_single_get	24	static
LIS2MDL.c:399:9:lis2mdl_block_data_update_set	24	static
LIS2MDL.c:417:9:lis2mdl_block_data_update_get	24	static
LIS2MDL.c:434:9:lis2mdl_mag_data_ready_get	24	static
LIS2MDL.c:451:9:lis2mdl_mag_data_ovr_get	24	static
LIS2MDL.c:468:9:lis2mdl_magnetic_raw_get	8	static
LIS2MDL.c:479:9:lis2mdl_temperature_raw_get	8	static
LIS2MDL.c:500:9:lis2mdl_device_id_get	8	static
LIS2MDL.c:512:9:lis2mdl_reset_set	24	static
LIS2MDL.c:531:9:lis2mdl_reset_get	24	static
LIS2MDL.c:549:9:lis2mdl_boot_set	24	static
LIS2MDL.c:568:9:lis2mdl_boot_get	24	static
LIS2MDL.c:585:9:lis2mdl_self_test_set	24	static
LIS2MDL.c:603:9:lis2mdl_self_test_get	24	static
LIS2MDL.c:620:9:lis2mdl_data_format_set	24	static
LIS2MDL.c:638:9:lis2mdl_data_format_get	24	static
LIS2MDL.c:655:9:lis2mdl_status_get	8	static
LIS2MDL.c:679:9:lis2mdl_offset_int_conf_set	24	static
LIS2MDL.c:700:9:lis2mdl_offset_int_conf_get	24	static
LIS2MDL.c:717:9:lis2mdl_drdy_on_pin_set	24	static
LIS2MDL.c:735:9:lis2mdl_drdy_on_pin_get	24	static
LIS2MDL.c:752:9:lis2mdl_int_on_pin_set	24	static
LIS2MDL.c:770:9:lis2mdl_int_on_pin_get	24	static
LIS2MDL.c:787:9:lis2mdl_int_gen_conf_set	8	static
LIS2MDL.c:798:9:lis2mdl_int_gen_conf_get	8	static
LIS2MDL.c:809:9:lis2mdl_int_gen_source_get	8	static
LIS2MDL.c:824:9:lis2mdl_int_gen_treshold_set	8	static
LIS2MDL.c:839:9:lis2mdl_int_gen_treshold_get	8	static
LIS2MDL.c:861:9:lis2mdl_i2c_interface_set	24	static
LIS2MDL.c:879:9:lis2mdl_i2c_interface_get	24	static
