SDK_EVAL_Button.c:77:10:Get_ButtonGpioPin	0	static
SDK_EVAL_Button.c:112:6:SdkEvalPushButtonInit	16	static
SDK_EVAL_Button.c:142:6:SdkEvalPushButtonIrq	40	static
SDK_EVAL_Button.c:176:12:SdkEvalPushButtonGetState	8	static
SDK_EVAL_Button.c:194:12:SdkEvalPushButtonGetITPendingBit	8	static
SDK_EVAL_Button.c:208:6:SdkEvalPushButtonClearITPendingBit	8	static
