SDK_EVAL_I2C.c:126:13:SdkEvalI2CInit	48	static
SDK_EVAL_I2C.c:171:13:SdkEvalI2CWrite	40	static
SDK_EVAL_I2C.c:218:13:SdkEvalI2CWrite16	40	static
SDK_EVAL_I2C.c:267:13:SdkEvalI2CRead	48	static
SDK_EVAL_I2C.c:336:13:SdkEvalI2CRead16	48	static
